ISSS624 - In-class Exercise 2C: EHSA
…
Second, we import the aspatial data Hunan_GDPPC, which contains the GDP Per Capita (GDPPC) of Chinese counties.

GDPPC = read_csv("data/aspatial/Hunan_GDPPC.csv")

Creating a Time Series Cube

GDPPC_st <- spacetime(GDPPC, hunan,
                      .loc_col = "County",
                      .time_col = "Year")
GDPPC_st

# A tibble: 1,496 × 3
    Year County    GDPPC
 * <dbl> <chr>     <dbl>
 1  2005 Longshan   3469
 2  2005 Changsha  24612
 3  2005 Wangcheng 14659
 4  2005 Ningxiang 11687
 5  2005 Liuyang   13406
 6  2005 Zhuzhou    8546
 7  2005 You       10944
 8  2005 Chaling    8040
 9  2005 Yanling    7383
10  2005 Liling    11688
# ℹ 1,486 more rows
…
Similar to the previous exercises, we calculate inverse distance first. However, we now have a time column in our data which is Year.

GDPPC_nb <- GDPPC_st %>%
  activate("geometry") %>%
  mutate(nb = include_self(st_contiguity(geometry)),
         wt = st_inverse_distance(nb, geometry,
                                  scale = 1,
                                  alpha = 1),
         .before = 1) %>%
  set_nbs("nb") %>%
  set_wts("wt")
GDPPC_nb

# A tibble: 1,496 × 5
    Year County    GDPPC nb        wt       
   <dbl> <chr>     <dbl> <list>    <list>   
 1  2005 Anxiang    8184 <int [6]> <dbl [6]>
 2  2005 Hanshou    6560 <int [6]> <dbl [6]>
 3  2005 Jinshi     9956 <int [5]> <dbl [5]>
 4  2005 Li         8394 <int [5]> <dbl [5]>
 5  2005 Linli      8850 <int [5]> <dbl [5]>
 6  2005 Shimen     9244 <int [6]> <dbl [6]>
 7  2005 Liuyang   13406 <int [5]> <dbl [5]>
 8  2005 Ningxiang 11687 <int [8]> <dbl [8]>
 9  2005 Wangcheng 14659 <int [7]> <dbl [7]>
10  2005 Anren      7423 <int [9]> <dbl [9]>
# ℹ 1,486 more rows

Computing local Gi*

gi_stars <- GDPPC_nb %>%
  group_by(Year) %>%
  mutate(gi_star = local_gstar_perm(
    GDPPC, nb, wt)) %>%
  tidyr::unnest(gi_star)
gi_stars

# A tibble: 1,496 × 13
# Groups:   Year [17]
    Year County    GDPPC nb        wt     gi_star   e_gi  var_gi p_value   p_sim
   <dbl> <chr>     <dbl> <list>    <list>   <dbl>  <dbl>   <dbl>   <dbl>   <dbl>
 1  2005 Anxiang    8184 <int [6]> <dbl>    0.398 0.0115 2.67e-6  0.362  0.717  
 2  2005 Hanshou    6560 <int [6]> <dbl>   -0.237 0.0110 2.90e-6 -0.0759 0.940  
 3  2005 Jinshi     9956 <int [5]> <dbl>    1.05  0.0126 3.20e-6  0.531  0.595  
 4  2005 Li         8394 <int [5]> <dbl>    0.966 0.0118 3.32e-6  0.843  0.399  
 5  2005 Linli      8850 <int [5]> <dbl>    1.05  0.0120 2.90e-6  0.931  0.352  
 6  2005 Shimen     9244 <int [6]> <dbl>    0.210 0.0122 2.87e-6 -0.282  0.778  
 7  2005 Liuyang   13406 <int [5]> <dbl>    3.91  0.0142 2.66e-6  3.28   0.00105
 8  2005 Ningxiang 11687 <int [8]> <dbl>    1.61  0.0127 2.39e-6  0.887  0.375  
 9  2005 Wangcheng 14659 <int [7]> <dbl>    3.88  0.0140 2.66e-6  2.66   0.00792
10  2005 Anren      7423 <int [9]> <dbl>    1.67  0.0113 2.06e-6  1.90   0.0581 
# ℹ 1,486 more rows
# ℹ 3 more variables: p_folded_sim <dbl>, skewness <dbl>, kurtosis <dbl>
…
In the above result, sl is the p-value. This result tells us that there is a slight upward but insignificant trend.

We can replicate this for each location by using group_by() of dplyr package.

ehsa <- gi_stars %>%
  group_by(County) %>%
  summarise(mk = list(
    unclass(
      Kendall::MannKendall(gi_star)))) %>%
  tidyr::unnest_wider(mk)
ehsa

# A tibble: 88 × 6
   County        tau         sl     S     D  varS
   <chr>       <dbl>      <dbl> <dbl> <dbl> <dbl>
 1 Anhua      0.191  0.303         26  136.  589.
 2 Anren     -0.294  0.108        -40  136.  589.
 3 Anxiang    0      1              0  136.  589.
 4 Baojing   -0.691  0.000128     -94  136.  589.
 5 Chaling   -0.0882 0.650        -12  136.  589.
 6 Changning -0.750  0.0000318   -102  136.  589.
 7 Changsha   0.485  0.00742       66  136.  589.
 8 Chengbu   -0.824  0.00000482  -112  136.  589.
 9 Chenxi    -0.118  0.537        -16  136.  589.
10 Cili       0.103  0.592         14  136.  589.
# ℹ 78 more rows
…
