ISSS624 - In-class Exercise 2: LISA
…
Computing local Moran’s I

lisa <- wm_q %>%
  mutate(local_moran = local_moran(
    GDPPC, nb, wt, nsim = 99),
      .before = 1) %>%
  unnest(local_moran)
lisa

Simple feature collection with 88 features and 16 fields
Geometry type: POLYGON
Dimension:     XY
Bounding box:  xmin: 108.7831 ymin: 24.6342 xmax: 114.2544 ymax: 30.12812
Geodetic CRS:  WGS 84
# A tibble: 88 × 17
         ii        eii     var_ii    z_ii    p_ii p_ii_sim p_folded_sim skewness
      <dbl>      <dbl>      <dbl>   <dbl>   <dbl>    <dbl>        <dbl>    <dbl>
 1 -0.00147 -0.00208   0.000455    0.0286 9.77e-1     0.86         0.43   -0.967
 2  0.0259  -0.00121   0.0121      0.246  8.06e-1     0.96         0.48   -0.492
 3 -0.0120  -0.0290    0.104       0.0526 9.58e-1     0.72         0.36    0.909
 4  0.00102  0.0000335 0.00000409  0.489  6.25e-1     0.6          0.3     0.574
 5  0.0148  -0.00491   0.00159     0.494  6.21e-1     0.56         0.28    1.26 
 6 -0.0388  -0.0160    0.00484    -0.328  7.43e-1     0.94         0.47    0.637
 7  3.37    -0.0767    1.89        2.51   1.22e-2     0.06         0.03    0.997
 8  1.56    -0.00585   0.975       1.59   1.13e-1     0.18         0.09    0.768
 9  4.42    -0.224     1.18        4.27   1.96e-5     0.02         0.01    0.740
10 -0.399    0.0144    0.0637     -1.64   1.01e-1     0.14         0.07   -0.309
# ℹ 78 more rows
# ℹ 9 more variables: kurtosis <dbl>, mean <fct>, median <fct>, pysal <fct>,
#   nb <nb>, wt <list>, County <chr>, GDPPC <dbl>, geometry <POLYGON [°]>
