ISSS624 - In-class Exercise 2: EHSA
…
Second, we import the aspatial data Hunan_GDPPC, which contains the GDP Per Capita (GDPPC) of Chinese counties.

GDPPC = read_csv("data/aspatial/Hunan_GDPPC.csv")

Creating a Time Series Cube

GDPPC_st <- spacetime(GDPPC, hunan,
                      .loc_col = "County",
                      .time_col = "Year")
GDPPC_st

# A tibble: 1,496 × 3
    Year County    GDPPC
 * <dbl> <chr>     <dbl>
 1  2005 Longshan   3469
 2  2005 Changsha  24612
 3  2005 Wangcheng 14659
 4  2005 Ningxiang 11687
 5  2005 Liuyang   13406
 6  2005 Zhuzhou    8546
 7  2005 You       10944
 8  2005 Chaling    8040
 9  2005 Yanling    7383
10  2005 Liling    11688
# ℹ 1,486 more rows
…
